…
phenoColors <- c("#853061","#B03060","#C97795","#E8C8D4","#C2D5C0","#7FA779","#006400")

all.pcg <- norm.All %>% filter((Class == "Protein-coding" | Class == "transgene")&grepl("35S",promoter)) %>% mutate(phenotype = case_when(phenotype == "3redParts" ~ "4Red Parts",phenotype == "4greenParts" ~ "5Green Parts",phenotype == "5fullRed" ~ "3Full Red",phenotype == "7fullGreen" ~ "7greenRedCotyledons",phenotype == "2reddish" ~ "1red",phenotype == "7green" ~ "0col",TRUE ~ phenotype)) %>%   separate(genotype,into=c("Genotype","Rep")) %>% mutate(Genotype = case_when(Genotype == "MK041A" ~ "MK041", TRUE ~ Genotype),class = case_when(phenotype == "1red" ~ "Always Red", phenotype == "8green" ~ "Always Green",phenotype=="0col"~"No transgene",TRUE~ "Red-to-Green")) %>% mutate(Genotype = str_replace(Genotype,"MK0",""),Rep = str_replace(Rep,"rep","Rep ")) %>%   mutate(background=case_when(promoter!="35S"~"dcl1234",TRUE ~ "Wt"),phenotype=case_when(promoter== "35S_dcl1234" ~ "0red",TRUE ~ phenotype))

all.pcg2 <- all.pcg %>% mutate(phenotype=case_when(promoter=="35S_dcl1234" ~ "0dcl red", TRUE ~ phenotype)) %>% filter(phenotype != "0col") 

all.pcg2%>% filter(Class =="transgene")
```

    ## # A tibble: 69 × 18
    ##    Name     Class     num   Genotype Rep   promoter    phenotype normSense_nonpA
    ##    <chr>    <chr>     <chr> <chr>    <chr> <chr>       <chr>               <dbl>
    ##  1 "RUBY\n" transgene 01    41       Rep 1 35S         4Red Par…          82936.
    ##  2 "RUBY\n" transgene 01    72       Rep 1 35S_dcl1234 0dcl red          219651.
    ##  3 "RUBY\n" transgene 02    17       Rep 1 35S         8green            139026.
    ##  4 "RUBY\n" transgene 02    41       Rep 1 35S         5Green P…          58607.
    ##  5 "RUBY\n" transgene 02    72       Rep 2 35S_dcl1234 0dcl red          222029.
    ##  6 "RUBY\n" transgene 03    16       Rep 1 35S         1red               49364.
    ##  7 "RUBY\n" transgene 03    41       Rep 1 35S         3Full Red          92028.
    ##  8 "RUBY\n" transgene 03    72       Rep 3 35S_dcl1234 0dcl red          237905.
    ##  9 "RUBY\n" transgene 04    16       Rep 2 35S         1red               82121.
    ## 10 "RUBY\n" transgene 04    41       Rep 2 35S         4Red Par…          74394.
    ## # ℹ 59 more rows
    ## # ℹ 10 more variables: normAnti_nonpA <dbl>, normSense_pA <dbl>,
    ## #   normAnti_pA <dbl>, normTotal <dbl>, pctSensepA <dbl>, pctAntipA <dbl>,
    ## #   pctSensenonpA <dbl>, pctAntinonpA <dbl>, class <chr>, background <chr>
…
